%YAML 1.1
%TAG !u! tag:unity3d.com,2011:
--- !u!1001 &9029942735174732417
PrefabInstance:
  m_ObjectHideFlags: 0
  serializedVersion: 2
  m_Modification:
    m_TransformParent: {fileID: 0}
    m_Modifications:
    - target: {fileID: 9222778711683056312, guid: e4505bdf3dfc08f40aa89e4d08cc87f7, type: 3}
      propertyPath: stopAction
      value: 2
      objectReference: {fileID: 0}
    - target: {fileID: 9222778711683056312, guid: e4505bdf3dfc08f40aa89e4d08cc87f7, type: 3}
      propertyPath: InitialModule.startColor.maxGradient.key0.b
      value: 0.54509807
      objectReference: {fileID: 0}
    - target: {fileID: 9222778711683056312, guid: e4505bdf3dfc08f40aa89e4d08cc87f7, type: 3}
      propertyPath: InitialModule.startColor.maxGradient.key0.g
      value: 0.9607844
      objectReference: {fileID: 0}
    - target: {fileID: 9222778711683056312, guid: e4505bdf3dfc08f40aa89e4d08cc87f7, type: 3}
      propertyPath: InitialModule.startColor.maxGradient.key1.b
      value: 0.41960788
      objectReference: {fileID: 0}
    - target: {fileID: 9222778711683056312, guid: e4505bdf3dfc08f40aa89e4d08cc87f7, type: 3}
      propertyPath: InitialModule.startColor.maxGradient.key1.g
      value: 0.5254902
      objectReference: {fileID: 0}
    - target: {fileID: 9222778711683056312, guid: e4505bdf3dfc08f40aa89e4d08cc87f7, type: 3}
      propertyPath: InitialModule.startColor.maxGradient.key1.r
      value: 0.6117647
      objectReference: {fileID: 0}
    - target: {fileID: 9222778711683056312, guid: e4505bdf3dfc08f40aa89e4d08cc87f7, type: 3}
      propertyPath: InitialModule.startColor.maxGradient.key2.b
      value: 0.050980397
      objectReference: {fileID: 0}
    - target: {fileID: 9222778711683056312, guid: e4505bdf3dfc08f40aa89e4d08cc87f7, type: 3}
      propertyPath: InitialModule.startColor.maxGradient.key2.g
      value: 0.23529413
      objectReference: {fileID: 0}
    - target: {fileID: 9222778711683056312, guid: e4505bdf3dfc08f40aa89e4d08cc87f7, type: 3}
      propertyPath: InitialModule.startColor.maxGradient.key2.r
      value: 0.38823533
      objectReference: {fileID: 0}
    - target: {fileID: 9222778711683056313, guid: e4505bdf3dfc08f40aa89e4d08cc87f7, type: 3}
      propertyPath: m_RootOrder
      value: 0
      objectReference: {fileID: 0}
    - target: {fileID: 9222778711683056313, guid: e4505bdf3dfc08f40aa89e4d08cc87f7, type: 3}
      propertyPath: m_LocalPosition.x
      value: 0
      objectReference: {fileID: 0}
    - target: {fileID: 9222778711683056313, guid: e4505bdf3dfc08f40aa89e4d08cc87f7, type: 3}
      propertyPath: m_LocalPosition.y
      value: 0
      objectReference: {fileID: 0}
    - target: {fileID: 9222778711683056313, guid: e4505bdf3dfc08f40aa89e4d08cc87f7, type: 3}
      propertyPath: m_LocalPosition.z
      value: 0
      objectReference: {fileID: 0}
    - target: {fileID: 9222778711683056313, guid: e4505bdf3dfc08f40aa89e4d08cc87f7, type: 3}
      propertyPath: m_LocalRotation.w
      value: 1
      objectReference: {fileID: 0}
    - target: {fileID: 9222778711683056313, guid: e4505bdf3dfc08f40aa89e4d08cc87f7, type: 3}
      propertyPath: m_LocalRotation.x
      value: 0
      objectReference: {fileID: 0}
    - target: {fileID: 9222778711683056313, guid: e4505bdf3dfc08f40aa89e4d08cc87f7, type: 3}
      propertyPath: m_LocalRotation.y
      value: 0
      objectReference: {fileID: 0}
    - target: {fileID: 9222778711683056313, guid: e4505bdf3dfc08f40aa89e4d08cc87f7, type: 3}
      propertyPath: m_LocalRotation.z
      value: 0
      objectReference: {fileID: 0}
    - target: {fileID: 9222778711683056313, guid: e4505bdf3dfc08f40aa89e4d08cc87f7, type: 3}
      propertyPath: m_LocalEulerAnglesHint.x
      value: 0
      objectReference: {fileID: 0}
    - target: {fileID: 9222778711683056313, guid: e4505bdf3dfc08f40aa89e4d08cc87f7, type: 3}
      propertyPath: m_LocalEulerAnglesHint.y
      value: 0
      objectReference: {fileID: 0}
    - target: {fileID: 9222778711683056313, guid: e4505bdf3dfc08f40aa89e4d08cc87f7, type: 3}
      propertyPath: m_LocalEulerAnglesHint.z
      value: 0
      objectReference: {fileID: 0}
    - target: {fileID: 9222778711683056314, guid: e4505bdf3dfc08f40aa89e4d08cc87f7, type: 3}
      propertyPath: m_Name
      value: IceCreamExplosion Variant
      objectReference: {fileID: 0}
    m_RemovedComponents: []
  m_SourcePrefab: {fileID: 100100000, guid: e4505bdf3dfc08f40aa89e4d08cc87f7, type: 3}
