%YAML 1.1
%TAG !u! tag:unity3d.com,2011:
--- !u!1001 &6976189165460069876
PrefabInstance:
  m_ObjectHideFlags: 0
  serializedVersion: 2
  m_Modification:
    m_TransformParent: {fileID: 0}
    m_Modifications:
    - target: {fileID: 785010996250371302, guid: c3d2fef32f8041b4abefed1d9b41d71a, type: 3}
      propertyPath: m_Pivot.x
      value: 0.5
      objectReference: {fileID: 0}
    - target: {fileID: 785010996250371302, guid: c3d2fef32f8041b4abefed1d9b41d71a, type: 3}
      propertyPath: m_Pivot.y
      value: 0.5
      objectReference: {fileID: 0}
    - target: {fileID: 785010996250371302, guid: c3d2fef32f8041b4abefed1d9b41d71a, type: 3}
      propertyPath: m_RootOrder
      value: 0
      objectReference: {fileID: 0}
    - target: {fileID: 785010996250371302, guid: c3d2fef32f8041b4abefed1d9b41d71a, type: 3}
      propertyPath: m_AnchorMax.x
      value: 0.5
      objectReference: {fileID: 0}
    - target: {fileID: 785010996250371302, guid: c3d2fef32f8041b4abefed1d9b41d71a, type: 3}
      propertyPath: m_AnchorMax.y
      value: 0.5
      objectReference: {fileID: 0}
    - target: {fileID: 785010996250371302, guid: c3d2fef32f8041b4abefed1d9b41d71a, type: 3}
      propertyPath: m_AnchorMin.x
      value: 0.5
      objectReference: {fileID: 0}
    - target: {fileID: 785010996250371302, guid: c3d2fef32f8041b4abefed1d9b41d71a, type: 3}
      propertyPath: m_AnchorMin.y
      value: 0.5
      objectReference: {fileID: 0}
    - target: {fileID: 785010996250371302, guid: c3d2fef32f8041b4abefed1d9b41d71a, type: 3}
      propertyPath: m_SizeDelta.x
      value: 20
      objectReference: {fileID: 0}
    - target: {fileID: 785010996250371302, guid: c3d2fef32f8041b4abefed1d9b41d71a, type: 3}
      propertyPath: m_SizeDelta.y
      value: 5
      objectReference: {fileID: 0}
    - target: {fileID: 785010996250371302, guid: c3d2fef32f8041b4abefed1d9b41d71a, type: 3}
      propertyPath: m_LocalPosition.x
      value: 0
      objectReference: {fileID: 0}
    - target: {fileID: 785010996250371302, guid: c3d2fef32f8041b4abefed1d9b41d71a, type: 3}
      propertyPath: m_LocalPosition.y
      value: 0
      objectReference: {fileID: 0}
    - target: {fileID: 785010996250371302, guid: c3d2fef32f8041b4abefed1d9b41d71a, type: 3}
      propertyPath: m_LocalPosition.z
      value: 0
      objectReference: {fileID: 0}
    - target: {fileID: 785010996250371302, guid: c3d2fef32f8041b4abefed1d9b41d71a, type: 3}
      propertyPath: m_LocalRotation.w
      value: 1
      objectReference: {fileID: 0}
    - target: {fileID: 785010996250371302, guid: c3d2fef32f8041b4abefed1d9b41d71a, type: 3}
      propertyPath: m_LocalRotation.x
      value: -0
      objectReference: {fileID: 0}
    - target: {fileID: 785010996250371302, guid: c3d2fef32f8041b4abefed1d9b41d71a, type: 3}
      propertyPath: m_LocalRotation.y
      value: -0
      objectReference: {fileID: 0}
    - target: {fileID: 785010996250371302, guid: c3d2fef32f8041b4abefed1d9b41d71a, type: 3}
      propertyPath: m_LocalRotation.z
      value: -0
      objectReference: {fileID: 0}
    - target: {fileID: 785010996250371302, guid: c3d2fef32f8041b4abefed1d9b41d71a, type: 3}
      propertyPath: m_AnchoredPosition.x
      value: -4.48
      objectReference: {fileID: 0}
    - target: {fileID: 785010996250371302, guid: c3d2fef32f8041b4abefed1d9b41d71a, type: 3}
      propertyPath: m_AnchoredPosition.y
      value: -1.78
      objectReference: {fileID: 0}
    - target: {fileID: 785010996250371302, guid: c3d2fef32f8041b4abefed1d9b41d71a, type: 3}
      propertyPath: m_LocalEulerAnglesHint.x
      value: 0
      objectReference: {fileID: 0}
    - target: {fileID: 785010996250371302, guid: c3d2fef32f8041b4abefed1d9b41d71a, type: 3}
      propertyPath: m_LocalEulerAnglesHint.y
      value: 0
      objectReference: {fileID: 0}
    - target: {fileID: 785010996250371302, guid: c3d2fef32f8041b4abefed1d9b41d71a, type: 3}
      propertyPath: m_LocalEulerAnglesHint.z
      value: 0
      objectReference: {fileID: 0}
    - target: {fileID: 1018181796292289441, guid: c3d2fef32f8041b4abefed1d9b41d71a, type: 3}
      propertyPath: m_LocalScale.x
      value: 1
      objectReference: {fileID: 0}
    - target: {fileID: 1018181796292289441, guid: c3d2fef32f8041b4abefed1d9b41d71a, type: 3}
      propertyPath: m_LocalScale.y
      value: 1
      objectReference: {fileID: 0}
    - target: {fileID: 1018181796292289441, guid: c3d2fef32f8041b4abefed1d9b41d71a, type: 3}
      propertyPath: m_LocalScale.z
      value: 0
      objectReference: {fileID: 0}
    - target: {fileID: 1018181796292289441, guid: c3d2fef32f8041b4abefed1d9b41d71a, type: 3}
      propertyPath: m_AnchoredPosition.x
      value: -0.11
      objectReference: {fileID: 0}
    - target: {fileID: 2346911880805027109, guid: c3d2fef32f8041b4abefed1d9b41d71a, type: 3}
      propertyPath: m_AnchoredPosition.x
      value: -0.86
      objectReference: {fileID: 0}
    - target: {fileID: 4100857841358231713, guid: c3d2fef32f8041b4abefed1d9b41d71a, type: 3}
      propertyPath: m_Name
      value: PomegranteSpawner
      objectReference: {fileID: 0}
    - target: {fileID: 4100857841358231714, guid: c3d2fef32f8041b4abefed1d9b41d71a, type: 3}
      propertyPath: shouldStart
      value: 0
      objectReference: {fileID: 0}
    - target: {fileID: 4100857841358231714, guid: c3d2fef32f8041b4abefed1d9b41d71a, type: 3}
      propertyPath: unitToSpawn
      value: 
      objectReference: {fileID: 8765011467981436076, guid: 0c84bb00f1c5fa84e93b255db3556ee6, type: 3}
    - target: {fileID: 8888972012330632315, guid: c3d2fef32f8041b4abefed1d9b41d71a, type: 3}
      propertyPath: m_Size.x
      value: 0.5
      objectReference: {fileID: 0}
    - target: {fileID: 8888972012330632315, guid: c3d2fef32f8041b4abefed1d9b41d71a, type: 3}
      propertyPath: m_Size.y
      value: 0.5
      objectReference: {fileID: 0}
    - target: {fileID: 8888972012330632315, guid: c3d2fef32f8041b4abefed1d9b41d71a, type: 3}
      propertyPath: m_Sprite
      value: 
      objectReference: {fileID: -867295342, guid: 726fd5071d711ea499c2d08f9fbb9595, type: 3}
    m_RemovedComponents: []
  m_SourcePrefab: {fileID: 100100000, guid: c3d2fef32f8041b4abefed1d9b41d71a, type: 3}
