%YAML 1.1
%TAG !u! tag:unity3d.com,2011:
--- !u!1001 &4217548360514382174
PrefabInstance:
  m_ObjectHideFlags: 0
  serializedVersion: 2
  m_Modification:
    m_TransformParent: {fileID: 0}
    m_Modifications:
    - target: {fileID: 707866701566858258, guid: 6a9e355f3fae59143a1d5053315c8332, type: 3}
      propertyPath: m_Sprite
      value: 
      objectReference: {fileID: -183487985, guid: 2bd0abd55f87af1459e4859fc7d17ee0, type: 3}
    - target: {fileID: 2655362811683835733, guid: 6a9e355f3fae59143a1d5053315c8332, type: 3}
      propertyPath: m_Sprite
      value: 
      objectReference: {fileID: -424618207, guid: 2bd0abd55f87af1459e4859fc7d17ee0, type: 3}
    - target: {fileID: 5318885294317304386, guid: 6a9e355f3fae59143a1d5053315c8332, type: 3}
      propertyPath: m_RootOrder
      value: 0
      objectReference: {fileID: 0}
    - target: {fileID: 5318885294317304386, guid: 6a9e355f3fae59143a1d5053315c8332, type: 3}
      propertyPath: m_LocalPosition.x
      value: 5.3071947
      objectReference: {fileID: 0}
    - target: {fileID: 5318885294317304386, guid: 6a9e355f3fae59143a1d5053315c8332, type: 3}
      propertyPath: m_LocalPosition.y
      value: -1.9573203
      objectReference: {fileID: 0}
    - target: {fileID: 5318885294317304386, guid: 6a9e355f3fae59143a1d5053315c8332, type: 3}
      propertyPath: m_LocalPosition.z
      value: 0
      objectReference: {fileID: 0}
    - target: {fileID: 5318885294317304386, guid: 6a9e355f3fae59143a1d5053315c8332, type: 3}
      propertyPath: m_LocalRotation.w
      value: 1
      objectReference: {fileID: 0}
    - target: {fileID: 5318885294317304386, guid: 6a9e355f3fae59143a1d5053315c8332, type: 3}
      propertyPath: m_LocalRotation.x
      value: 0
      objectReference: {fileID: 0}
    - target: {fileID: 5318885294317304386, guid: 6a9e355f3fae59143a1d5053315c8332, type: 3}
      propertyPath: m_LocalRotation.y
      value: 0
      objectReference: {fileID: 0}
    - target: {fileID: 5318885294317304386, guid: 6a9e355f3fae59143a1d5053315c8332, type: 3}
      propertyPath: m_LocalRotation.z
      value: 0
      objectReference: {fileID: 0}
    - target: {fileID: 5318885294317304386, guid: 6a9e355f3fae59143a1d5053315c8332, type: 3}
      propertyPath: m_LocalEulerAnglesHint.x
      value: 0
      objectReference: {fileID: 0}
    - target: {fileID: 5318885294317304386, guid: 6a9e355f3fae59143a1d5053315c8332, type: 3}
      propertyPath: m_LocalEulerAnglesHint.y
      value: 0
      objectReference: {fileID: 0}
    - target: {fileID: 5318885294317304386, guid: 6a9e355f3fae59143a1d5053315c8332, type: 3}
      propertyPath: m_LocalEulerAnglesHint.z
      value: 0
      objectReference: {fileID: 0}
    - target: {fileID: 5318885294317304397, guid: 6a9e355f3fae59143a1d5053315c8332, type: 3}
      propertyPath: m_Name
      value: Cola2
      objectReference: {fileID: 0}
    - target: {fileID: 6166579210568047015, guid: 6a9e355f3fae59143a1d5053315c8332, type: 3}
      propertyPath: damage
      value: 1.5
      objectReference: {fileID: 0}
    - target: {fileID: 6166579210568047015, guid: 6a9e355f3fae59143a1d5053315c8332, type: 3}
      propertyPath: health
      value: 11
      objectReference: {fileID: 0}
    - target: {fileID: 6166579210568047015, guid: 6a9e355f3fae59143a1d5053315c8332, type: 3}
      propertyPath: unitName
      value: Cola2
      objectReference: {fileID: 0}
    - target: {fileID: 6166579210568047015, guid: 6a9e355f3fae59143a1d5053315c8332, type: 3}
      propertyPath: dodgeRate
      value: 0.1
      objectReference: {fileID: 0}
    - target: {fileID: 6166579210568047015, guid: 6a9e355f3fae59143a1d5053315c8332, type: 3}
      propertyPath: knockback
      value: 0
      objectReference: {fileID: 0}
    - target: {fileID: 6166579210568047015, guid: 6a9e355f3fae59143a1d5053315c8332, type: 3}
      propertyPath: critChance
      value: 0.1
      objectReference: {fileID: 0}
    - target: {fileID: 6166579210568047015, guid: 6a9e355f3fae59143a1d5053315c8332, type: 3}
      propertyPath: attackRange
      value: 5
      objectReference: {fileID: 0}
    - target: {fileID: 6166579210568047015, guid: 6a9e355f3fae59143a1d5053315c8332, type: 3}
      propertyPath: unitTexture
      value: 
      objectReference: {fileID: -183487985, guid: 2bd0abd55f87af1459e4859fc7d17ee0, type: 3}
    - target: {fileID: 6166579210568047015, guid: 6a9e355f3fae59143a1d5053315c8332, type: 3}
      propertyPath: spawnerPrefab
      value: 
      objectReference: {fileID: 5624991174948900618, guid: 8647cd74502b86e43bfd05ad82675f33, type: 3}
    m_RemovedComponents: []
  m_SourcePrefab: {fileID: 100100000, guid: 6a9e355f3fae59143a1d5053315c8332, type: 3}
