%YAML 1.1
%TAG !u! tag:unity3d.com,2011:
--- !u!1001 &8118943674576161312
PrefabInstance:
  m_ObjectHideFlags: 0
  serializedVersion: 2
  m_Modification:
    m_TransformParent: {fileID: 0}
    m_Modifications:
    - target: {fileID: 1002732679596428677, guid: e900469ce182a29468e081c4e7b85dee, type: 3}
      propertyPath: m_RootOrder
      value: 0
      objectReference: {fileID: 0}
    - target: {fileID: 1002732679596428677, guid: e900469ce182a29468e081c4e7b85dee, type: 3}
      propertyPath: m_LocalPosition.x
      value: 1.9191813
      objectReference: {fileID: 0}
    - target: {fileID: 1002732679596428677, guid: e900469ce182a29468e081c4e7b85dee, type: 3}
      propertyPath: m_LocalPosition.y
      value: -2.426946
      objectReference: {fileID: 0}
    - target: {fileID: 1002732679596428677, guid: e900469ce182a29468e081c4e7b85dee, type: 3}
      propertyPath: m_LocalPosition.z
      value: 0
      objectReference: {fileID: 0}
    - target: {fileID: 1002732679596428677, guid: e900469ce182a29468e081c4e7b85dee, type: 3}
      propertyPath: m_LocalRotation.w
      value: 1
      objectReference: {fileID: 0}
    - target: {fileID: 1002732679596428677, guid: e900469ce182a29468e081c4e7b85dee, type: 3}
      propertyPath: m_LocalRotation.x
      value: 0
      objectReference: {fileID: 0}
    - target: {fileID: 1002732679596428677, guid: e900469ce182a29468e081c4e7b85dee, type: 3}
      propertyPath: m_LocalRotation.y
      value: 0
      objectReference: {fileID: 0}
    - target: {fileID: 1002732679596428677, guid: e900469ce182a29468e081c4e7b85dee, type: 3}
      propertyPath: m_LocalRotation.z
      value: 0
      objectReference: {fileID: 0}
    - target: {fileID: 1002732679596428677, guid: e900469ce182a29468e081c4e7b85dee, type: 3}
      propertyPath: m_LocalEulerAnglesHint.x
      value: 0
      objectReference: {fileID: 0}
    - target: {fileID: 1002732679596428677, guid: e900469ce182a29468e081c4e7b85dee, type: 3}
      propertyPath: m_LocalEulerAnglesHint.y
      value: 0
      objectReference: {fileID: 0}
    - target: {fileID: 1002732679596428677, guid: e900469ce182a29468e081c4e7b85dee, type: 3}
      propertyPath: m_LocalEulerAnglesHint.z
      value: 0
      objectReference: {fileID: 0}
    - target: {fileID: 1002732679596428682, guid: e900469ce182a29468e081c4e7b85dee, type: 3}
      propertyPath: m_Name
      value: Fries2
      objectReference: {fileID: 0}
    - target: {fileID: 1273958970413166176, guid: e900469ce182a29468e081c4e7b85dee, type: 3}
      propertyPath: damage
      value: 1.3
      objectReference: {fileID: 0}
    - target: {fileID: 1273958970413166176, guid: e900469ce182a29468e081c4e7b85dee, type: 3}
      propertyPath: health
      value: 10
      objectReference: {fileID: 0}
    - target: {fileID: 1273958970413166176, guid: e900469ce182a29468e081c4e7b85dee, type: 3}
      propertyPath: unitName
      value: Fries2
      objectReference: {fileID: 0}
    - target: {fileID: 1273958970413166176, guid: e900469ce182a29468e081c4e7b85dee, type: 3}
      propertyPath: dodgeRate
      value: 0.1
      objectReference: {fileID: 0}
    - target: {fileID: 1273958970413166176, guid: e900469ce182a29468e081c4e7b85dee, type: 3}
      propertyPath: knockback
      value: 2
      objectReference: {fileID: 0}
    - target: {fileID: 1273958970413166176, guid: e900469ce182a29468e081c4e7b85dee, type: 3}
      propertyPath: critChance
      value: 0.1
      objectReference: {fileID: 0}
    - target: {fileID: 1273958970413166176, guid: e900469ce182a29468e081c4e7b85dee, type: 3}
      propertyPath: attackSpeed
      value: 1.3
      objectReference: {fileID: 0}
    - target: {fileID: 1273958970413166176, guid: e900469ce182a29468e081c4e7b85dee, type: 3}
      propertyPath: unitTexture
      value: 
      objectReference: {fileID: -610156472, guid: e4db00c5658d637439f7ea22fbb80b8c, type: 3}
    - target: {fileID: 1273958970413166176, guid: e900469ce182a29468e081c4e7b85dee, type: 3}
      propertyPath: spawnerPrefab
      value: 
      objectReference: {fileID: 2856712811233078973, guid: 9e6dde81497cd45458f583da7cd4d4bf, type: 3}
    - target: {fileID: 1273958970413166176, guid: e900469ce182a29468e081c4e7b85dee, type: 3}
      propertyPath: kitingEfficiency
      value: 0.35
      objectReference: {fileID: 0}
    - target: {fileID: 5613962275605570517, guid: e900469ce182a29468e081c4e7b85dee, type: 3}
      propertyPath: m_Sprite
      value: 
      objectReference: {fileID: -610156472, guid: e4db00c5658d637439f7ea22fbb80b8c, type: 3}
    - target: {fileID: 6981612521927162002, guid: e900469ce182a29468e081c4e7b85dee, type: 3}
      propertyPath: m_Sprite
      value: 
      objectReference: {fileID: -596484512, guid: e4db00c5658d637439f7ea22fbb80b8c, type: 3}
    m_RemovedComponents: []
  m_SourcePrefab: {fileID: 100100000, guid: e900469ce182a29468e081c4e7b85dee, type: 3}
