%YAML 1.1
%TAG !u! tag:unity3d.com,2011:
--- !u!1001 &8855674594377396523
PrefabInstance:
  m_ObjectHideFlags: 0
  serializedVersion: 2
  m_Modification:
    m_TransformParent: {fileID: 0}
    m_Modifications:
    - target: {fileID: 2679307813545480592, guid: 1e516566e878bb945914e5688b11fa26, type: 3}
      propertyPath: m_Name
      value: Pizza2
      objectReference: {fileID: 0}
    - target: {fileID: 2679307813545480607, guid: 1e516566e878bb945914e5688b11fa26, type: 3}
      propertyPath: m_RootOrder
      value: 0
      objectReference: {fileID: 0}
    - target: {fileID: 2679307813545480607, guid: 1e516566e878bb945914e5688b11fa26, type: 3}
      propertyPath: m_LocalPosition.x
      value: 5.7097306
      objectReference: {fileID: 0}
    - target: {fileID: 2679307813545480607, guid: 1e516566e878bb945914e5688b11fa26, type: 3}
      propertyPath: m_LocalPosition.y
      value: -2.7959375
      objectReference: {fileID: 0}
    - target: {fileID: 2679307813545480607, guid: 1e516566e878bb945914e5688b11fa26, type: 3}
      propertyPath: m_LocalPosition.z
      value: 0
      objectReference: {fileID: 0}
    - target: {fileID: 2679307813545480607, guid: 1e516566e878bb945914e5688b11fa26, type: 3}
      propertyPath: m_LocalRotation.w
      value: 1
      objectReference: {fileID: 0}
    - target: {fileID: 2679307813545480607, guid: 1e516566e878bb945914e5688b11fa26, type: 3}
      propertyPath: m_LocalRotation.x
      value: 0
      objectReference: {fileID: 0}
    - target: {fileID: 2679307813545480607, guid: 1e516566e878bb945914e5688b11fa26, type: 3}
      propertyPath: m_LocalRotation.y
      value: 0
      objectReference: {fileID: 0}
    - target: {fileID: 2679307813545480607, guid: 1e516566e878bb945914e5688b11fa26, type: 3}
      propertyPath: m_LocalRotation.z
      value: 0
      objectReference: {fileID: 0}
    - target: {fileID: 2679307813545480607, guid: 1e516566e878bb945914e5688b11fa26, type: 3}
      propertyPath: m_LocalEulerAnglesHint.x
      value: 0
      objectReference: {fileID: 0}
    - target: {fileID: 2679307813545480607, guid: 1e516566e878bb945914e5688b11fa26, type: 3}
      propertyPath: m_LocalEulerAnglesHint.y
      value: 0
      objectReference: {fileID: 0}
    - target: {fileID: 2679307813545480607, guid: 1e516566e878bb945914e5688b11fa26, type: 3}
      propertyPath: m_LocalEulerAnglesHint.z
      value: 0
      objectReference: {fileID: 0}
    - target: {fileID: 4137328814507029114, guid: 1e516566e878bb945914e5688b11fa26, type: 3}
      propertyPath: damage
      value: 1.6
      objectReference: {fileID: 0}
    - target: {fileID: 4137328814507029114, guid: 1e516566e878bb945914e5688b11fa26, type: 3}
      propertyPath: health
      value: 24
      objectReference: {fileID: 0}
    - target: {fileID: 4137328814507029114, guid: 1e516566e878bb945914e5688b11fa26, type: 3}
      propertyPath: unitName
      value: Pizza2
      objectReference: {fileID: 0}
    - target: {fileID: 4137328814507029114, guid: 1e516566e878bb945914e5688b11fa26, type: 3}
      propertyPath: knockback
      value: 9
      objectReference: {fileID: 0}
    - target: {fileID: 4137328814507029114, guid: 1e516566e878bb945914e5688b11fa26, type: 3}
      propertyPath: stunChance
      value: 0.05
      objectReference: {fileID: 0}
    - target: {fileID: 4137328814507029114, guid: 1e516566e878bb945914e5688b11fa26, type: 3}
      propertyPath: attackRange
      value: 2.2
      objectReference: {fileID: 0}
    - target: {fileID: 4137328814507029114, guid: 1e516566e878bb945914e5688b11fa26, type: 3}
      propertyPath: attackSpeed
      value: 0.8
      objectReference: {fileID: 0}
    - target: {fileID: 4137328814507029114, guid: 1e516566e878bb945914e5688b11fa26, type: 3}
      propertyPath: unitTexture
      value: 
      objectReference: {fileID: 224114450, guid: 0072878aab6b17043bf5bc2b5f9b0b60, type: 3}
    - target: {fileID: 4137328814507029114, guid: 1e516566e878bb945914e5688b11fa26, type: 3}
      propertyPath: spawnerPrefab
      value: 
      objectReference: {fileID: 3666370122572694171, guid: 46d9c020bc66b5b4ebaff6985260ad28, type: 3}
    - target: {fileID: 5199150497523098760, guid: 1e516566e878bb945914e5688b11fa26, type: 3}
      propertyPath: m_Sprite
      value: 
      objectReference: {fileID: 1365771044, guid: 0072878aab6b17043bf5bc2b5f9b0b60, type: 3}
    - target: {fileID: 7290325866232561615, guid: 1e516566e878bb945914e5688b11fa26, type: 3}
      propertyPath: m_Sprite
      value: 
      objectReference: {fileID: 224114450, guid: 0072878aab6b17043bf5bc2b5f9b0b60, type: 3}
    m_RemovedComponents: []
  m_SourcePrefab: {fileID: 100100000, guid: 1e516566e878bb945914e5688b11fa26, type: 3}
