%YAML 1.1
%TAG !u! tag:unity3d.com,2011:
--- !u!1001 &9054720975315972353
PrefabInstance:
  m_ObjectHideFlags: 0
  serializedVersion: 2
  m_Modification:
    m_TransformParent: {fileID: 0}
    m_Modifications:
    - target: {fileID: 1906128074400910765, guid: 45eaef3f71492204eb746917fa8fc1f6, type: 3}
      propertyPath: m_Name
      value: Lolipop1SpawnerTier1
      objectReference: {fileID: 0}
    - target: {fileID: 1906128074400910766, guid: 45eaef3f71492204eb746917fa8fc1f6, type: 3}
      propertyPath: unitToSpawn
      value: 
      objectReference: {fileID: 8687272047250516465, guid: d2913fe59c2e5b54b863700fb1697224, type: 3}
    - target: {fileID: 2917816128579301866, guid: 45eaef3f71492204eb746917fa8fc1f6, type: 3}
      propertyPath: m_Pivot.x
      value: 0.5
      objectReference: {fileID: 0}
    - target: {fileID: 2917816128579301866, guid: 45eaef3f71492204eb746917fa8fc1f6, type: 3}
      propertyPath: m_Pivot.y
      value: 0.5
      objectReference: {fileID: 0}
    - target: {fileID: 2917816128579301866, guid: 45eaef3f71492204eb746917fa8fc1f6, type: 3}
      propertyPath: m_RootOrder
      value: 0
      objectReference: {fileID: 0}
    - target: {fileID: 2917816128579301866, guid: 45eaef3f71492204eb746917fa8fc1f6, type: 3}
      propertyPath: m_AnchorMax.x
      value: 0.5
      objectReference: {fileID: 0}
    - target: {fileID: 2917816128579301866, guid: 45eaef3f71492204eb746917fa8fc1f6, type: 3}
      propertyPath: m_AnchorMax.y
      value: 0.5
      objectReference: {fileID: 0}
    - target: {fileID: 2917816128579301866, guid: 45eaef3f71492204eb746917fa8fc1f6, type: 3}
      propertyPath: m_AnchorMin.x
      value: 0.5
      objectReference: {fileID: 0}
    - target: {fileID: 2917816128579301866, guid: 45eaef3f71492204eb746917fa8fc1f6, type: 3}
      propertyPath: m_AnchorMin.y
      value: 0.5
      objectReference: {fileID: 0}
    - target: {fileID: 2917816128579301866, guid: 45eaef3f71492204eb746917fa8fc1f6, type: 3}
      propertyPath: m_SizeDelta.x
      value: 20
      objectReference: {fileID: 0}
    - target: {fileID: 2917816128579301866, guid: 45eaef3f71492204eb746917fa8fc1f6, type: 3}
      propertyPath: m_SizeDelta.y
      value: 5
      objectReference: {fileID: 0}
    - target: {fileID: 2917816128579301866, guid: 45eaef3f71492204eb746917fa8fc1f6, type: 3}
      propertyPath: m_LocalPosition.x
      value: 0
      objectReference: {fileID: 0}
    - target: {fileID: 2917816128579301866, guid: 45eaef3f71492204eb746917fa8fc1f6, type: 3}
      propertyPath: m_LocalPosition.y
      value: 0
      objectReference: {fileID: 0}
    - target: {fileID: 2917816128579301866, guid: 45eaef3f71492204eb746917fa8fc1f6, type: 3}
      propertyPath: m_LocalPosition.z
      value: 0
      objectReference: {fileID: 0}
    - target: {fileID: 2917816128579301866, guid: 45eaef3f71492204eb746917fa8fc1f6, type: 3}
      propertyPath: m_LocalRotation.w
      value: 1
      objectReference: {fileID: 0}
    - target: {fileID: 2917816128579301866, guid: 45eaef3f71492204eb746917fa8fc1f6, type: 3}
      propertyPath: m_LocalRotation.x
      value: 0
      objectReference: {fileID: 0}
    - target: {fileID: 2917816128579301866, guid: 45eaef3f71492204eb746917fa8fc1f6, type: 3}
      propertyPath: m_LocalRotation.y
      value: 0
      objectReference: {fileID: 0}
    - target: {fileID: 2917816128579301866, guid: 45eaef3f71492204eb746917fa8fc1f6, type: 3}
      propertyPath: m_LocalRotation.z
      value: 0
      objectReference: {fileID: 0}
    - target: {fileID: 2917816128579301866, guid: 45eaef3f71492204eb746917fa8fc1f6, type: 3}
      propertyPath: m_AnchoredPosition.x
      value: 5.8774543
      objectReference: {fileID: 0}
    - target: {fileID: 2917816128579301866, guid: 45eaef3f71492204eb746917fa8fc1f6, type: 3}
      propertyPath: m_AnchoredPosition.y
      value: -2.3598566
      objectReference: {fileID: 0}
    - target: {fileID: 2917816128579301866, guid: 45eaef3f71492204eb746917fa8fc1f6, type: 3}
      propertyPath: m_LocalEulerAnglesHint.x
      value: 0
      objectReference: {fileID: 0}
    - target: {fileID: 2917816128579301866, guid: 45eaef3f71492204eb746917fa8fc1f6, type: 3}
      propertyPath: m_LocalEulerAnglesHint.y
      value: 0
      objectReference: {fileID: 0}
    - target: {fileID: 2917816128579301866, guid: 45eaef3f71492204eb746917fa8fc1f6, type: 3}
      propertyPath: m_LocalEulerAnglesHint.z
      value: 0
      objectReference: {fileID: 0}
    - target: {fileID: 6467514224628453751, guid: 45eaef3f71492204eb746917fa8fc1f6, type: 3}
      propertyPath: m_Sprite
      value: 
      objectReference: {fileID: 16410686, guid: cc518afb82806f54fbd2b399714d3e4d, type: 3}
    m_RemovedComponents: []
  m_SourcePrefab: {fileID: 100100000, guid: 45eaef3f71492204eb746917fa8fc1f6, type: 3}
